%YAML 1.1
%TAG !u! tag:unity3d.com,2011:
--- !u!114 &11400000
MonoBehaviour:
  m_ObjectHideFlags: 0
  m_CorrespondingSourceObject: {fileID: 0}
  m_PrefabInstance: {fileID: 0}
  m_PrefabAsset: {fileID: 0}
  m_GameObject: {fileID: 0}
  m_Enabled: 1
  m_EditorHideFlags: 0
  m_Script: {fileID: 11500000, guid: 182277c89162a894a9fdf8716be51891, type: 3}
  m_Name: "Fala cora\xE7\xE3o"
  m_EditorClassIdentifier: 
  dialogue:
  - You've got here quick!
  - This will be your last trial. The Heart
